HW2
…
HW2

Q1:

Part A

# iso3c and country are both primary keys in this dataset
# after running summarize, only the grouped by columns and 
# the new column created within summarize will exist in the resulting dataframe
country_population %>% filter((1990 <= year) & (year <= 2010)) %>%
  group_by(iso3c, country) %>% 
  summarize(mean_population = mean(population))
#> `summarise()` has grouped output by 'iso3c'. You can override using the
#> `.groups` argument.
#> # A tibble: 215 × 3
#> # Groups:   iso3c [215]
#>    iso3c country              mean_population
#>    <chr> <chr>                          <dbl>
#>  1 ABW   Aruba                         85839.
#>  2 AFG   Afghanistan                19819866.
#>  3 AGO   Angola                     16829911.
#>  4 ALB   Albania                     3095489.
#>  5 AND   Andorra                       67825.
#>  6 ARE   United Arab Emirates        3858774.
#>  7 ARG   Argentina                  36972314.
#>  8 ARM   Armenia                     3211816.
#>  9 ASM   American Samoa                54995.
#> 10 ATG   Antigua and Barbuda           74385.
#> # ℹ 205 more rows

Part B

country_birth %>% filter((1990 <= year) & (year <= 2010)) %>%
  dplyr::select(iso3c, year, life_expect) %>% 
  na.omit() %>% 
  group_by(iso3c) %>% 
  summarize(max_life_expect = max(life_expect),
            min_life_expect = min(life_expect)) %>% 
  mutate(range_life_expect = max_life_expect - min_life_expect)
#> # A tibble: 203 × 4
#>    iso3c max_life_expect min_life_expect range_life_expect
#>    <chr>           <dbl>           <dbl>             <dbl>
#>  1 ABW              75.0            73.4              1.56
#>  2 AFG              59.0            49.9              9.11
#>  3 AGO              50.7            41.1              9.52
#>  4 ALB              77.0            71.9              5.14
#>  5 ARE              76.7            71.7              4.96
#>  6 ARG              75.5            71.5              3.94
#>  7 ARM              74.2            67.7              6.49
#>  8 ATG              75.3            71.2              4.15
#>  9 AUS              81.7            77.0              4.70
#> 10 AUT              80.6            75.6              5.01
#> # ℹ 193 more rows

Part C

country_both = inner_join(country_population, country_birth, by = "iso3c")
#> Warning in inner_join(country_population, country_birth, by = "iso3c"): Detected an unexpected many-to-many relationship between `x` and `y`.
#> ℹ Row 1 of `x` matches multiple rows in `y`.
#> ℹ Row 287 of `y` matches multiple rows in `x`.
#> ℹ If a many-to-many relationship is expected, set `relationship =
#>   "many-to-many"` to silence this warning.
country_both
#> # A tibble: 343,980 × 8
#>    iso3c country year.x population year.y life_expect birth_rate
#>    <chr> <chr>    <dbl>      <dbl>  <dbl>       <dbl>      <dbl>
#>  1 ABW   Aruba     1960      54608   1990        73.4       19.6
#>  2 ABW   Aruba     1960      54608   1992        73.5       18.4
#>  3 ABW   Aruba     1960      54608   1994        73.5       17.3
#>  4 ABW   Aruba     1960      54608   2006        74.4       12.0
#>  5 ABW   Aruba     1960      54608   2003        74.0       13.0
#>  6 ABW   Aruba     1960      54608   1993        73.5       17.9
#>  7 ABW   Aruba     1960      54608   2005        74.2       12.3
#>  8 ABW   Aruba     1960      54608   2007        74.5       11.7
#>  9 ABW   Aruba     1960      54608   1996        73.6       16.1
#> 10 ABW   Aruba     1960      54608   2004        74.1       12.7
#> # ℹ 343,970 more rows
#> # ℹ 1 more variable: neonat_mortal_rate <dbl>
…
